Advanced Differential Privacy
…
\[\mathcal{M}(X)=M(X)+(\eta_1,\ldots,\eta_k)\]

The Laplace sanitizer uses \(l_1\)-Global Sensitivity.

Example

Lets consider a simple example with the Palmer Penguins data set. The data set contains 333 observations about Adelie, Chinstrap, and Gentoo penguins in Antarctica. Suppose we want to count how many penguins are Adelie penguins.

penguins <- palmerpenguins::penguins %>%
  drop_na()

penguins

## # A tibble: 333 x 8
##    species island    bill_length_mm bill_depth_mm flipper_length_mm body_mass_g
##    <fct>   <fct>              <dbl>         <dbl>             <int>       <int>
##  1 Adelie  Torgersen           39.1          18.7               181        3750
##  2 Adelie  Torgersen           39.5          17.4               186        3800
##  3 Adelie  Torgersen           40.3          18                 195        3250
##  4 Adelie  Torgersen           36.7          19.3               193        3450
##  5 Adelie  Torgersen           39.3          20.6               190        3650
##  6 Adelie  Torgersen           38.9          17.8               181        3625
##  7 Adelie  Torgersen           39.2          19.6               195        4675
##  8 Adelie  Torgersen           41.1          17.6               182        3200
##  9 Adelie  Torgersen           38.6          21.2               191        3800
## 10 Adelie  Torgersen           34.6          21.1               198        4400
## # ... with 323 more rows, and 2 more variables: sex <fct>, year <int>
…
